STA 210 - Spring 2022 - SLR: Mathematical models for inference
…
Use features of the distribution of the bootstrapped slopes to construct a confidence interval

Bootstrapping pipeline I

# #| code-line-numbers: "|1|3|4"
#| 
set.seed(119)

duke_forest %>%
  specify(price ~ area)

Response: price (numeric)
Explanatory: area (numeric)
# A tibble: 98 × 2
     price  area
     <dbl> <dbl>
 1 1520000  6040
 2 1030000  4475
 3  420000  1745
 4  680000  2091
 5  428500  1772
 6  456000  1950
 7 1270000  3909
 8  557450  2841
 9  697500  3924
10  650000  2173
# … with 88 more rows

Bootstrapping pipeline II

# #| code-line-numbers: "|5"

set.seed(119)

duke_forest %>%
  specify(price ~ area) %>%
  generate(reps = 1000, type = "bootstrap")

Response: price (numeric)
Explanatory: area (numeric)
# A tibble: 98,000 × 3
# Groups:   replicate [1,000]
   replicate   price  area
       <int>   <dbl> <dbl>
 1         1  535000  2334
 2         1  520000  2637
 3         1  540000  2165
 4         1  155000  1620
 5         1  567000  3931
 6         1  420000  1745
 7         1  400000  4769
 8         1  579000  2926
 9         1  615000  2203
10         1 1030000  4475
# … with 97,990 more rows

Bootstrapping pipeline III

# #| code-line-numbers: "|6"

set.seed(119)

duke_forest %>%
  specify(price ~ area) %>%
  generate(reps = 1000, type = "bootstrap") %>%
  fit()

# A tibble: 2,000 × 3
# Groups:   replicate [1,000]
   replicate term      estimate
       <int> <chr>        <dbl>
 1         1 intercept  200401.
 2         1 area          122.
 3         2 intercept  120000.
 4         2 area          156.
 5         3 intercept  190879.
 6         3 area          126.
 7         4 intercept  206842.
 8         4 area          127.
 9         5 intercept  211231.
10         5 area          124.
# … with 1,990 more rows
…
Randomizing to quantify the variability of the slope for the purpose of testing, under the assumption that the null hypothesis is true:

Simulate new samples from the original sample via permutation

Fit models to each of the samples and estimate the slope

Use features of the distribution of the permuted slopes to conduct a hypothesis test

Permutation, described

Set the null hypothesis to be true, and measure the natural variability in the data due to sampling but not due to variables being correlated by permuting permute one variable to eliminate any existing relationship between the variables

Each price value is randomly assigned to area of a given house, i.e. area and price are no longer matched for a given house

# A tibble: 98 × 3
   price_Observed price_Permuted  area
            <dbl>          <dbl> <dbl>
 1        1520000         342500  6040
 2        1030000         750000  4475
 3         420000         645000  1745
 4         680000         697500  2091
 5         428500         428500  1772
 6         456000         481000  1950
 7        1270000         610000  3909
 8         557450         680000  2841
 9         697500         485000  3924
10         650000         105000  2173
# … with 88 more rows
…
Permutation pipeline I

# #| code-line-numbers: "|1|3|4"
#| 
set.seed(1125)

duke_forest %>%
  specify(price ~ area)

Response: price (numeric)
Explanatory: area (numeric)
# A tibble: 98 × 2
     price  area
     <dbl> <dbl>
 1 1520000  6040
 2 1030000  4475
 3  420000  1745
 4  680000  2091
 5  428500  1772
 6  456000  1950
 7 1270000  3909
 8  557450  2841
 9  697500  3924
10  650000  2173
# … with 88 more rows

Permutation pipeline II

# #| code-line-numbers: "|5"

set.seed(1125)

duke_forest %>%
  specify(price ~ area) %>%
  hypothesize(null = "independence")

Response: price (numeric)
Explanatory: area (numeric)
Null Hypothesis: independence
# A tibble: 98 × 2
     price  area
     <dbl> <dbl>
 1 1520000  6040
 2 1030000  4475
 3  420000  1745
 4  680000  2091
 5  428500  1772
 6  456000  1950
 7 1270000  3909
 8  557450  2841
 9  697500  3924
10  650000  2173
# … with 88 more rows
Permutation pipeline III

# #| code-line-numbers: "|6"

set.seed(1125)

duke_forest %>%
  specify(price ~ area) %>%
  hypothesize(null = "independence") %>%
  generate(reps = 1000, type = "permute")

Response: price (numeric)
Explanatory: area (numeric)
Null Hypothesis: independence
# A tibble: 98,000 × 3
# Groups:   replicate [1,000]
     price  area replicate
     <dbl> <dbl>     <int>
 1  465000  6040         1
 2  481000  4475         1
 3 1020000  1745         1
 4  520000  2091         1
 5  592000  1772         1
 6  650000  1950         1
 7  473000  3909         1
 8  705000  2841         1
 9  785000  3924         1
10  671500  2173         1
# … with 97,990 more rows

Permutation pipeline IV

# #| code-line-numbers: "|7"

set.seed(1125)

duke_forest %>%
  specify(price ~ area) %>%
  hypothesize(null = "independence") %>%
  generate(reps = 1000, type = "permute") %>%
  fit()

# A tibble: 2,000 × 3
# Groups:   replicate [1,000]
   replicate term       estimate
       <int> <chr>         <dbl>
 1         1 intercept 553355.  
 2         1 area           2.35
 3         2 intercept 635824.  
 4         2 area         -27.3 
 5         3 intercept 536072.  
 6         3 area           8.57
 7         4 intercept 598649.  
 8         4 area         -13.9 
 9         5 intercept 556202.  
10         5 area           1.33
# … with 1,990 more rows
…
